…
[[26]]
[1] "2001-03-31"

[[27]]
[1] "2001-03-31"

 [1] "2001-03-31" "2001-03-31" "2001-03-31" "2001-03-31" "2001-03-31" "2001-03-31" "2001-03-31" "2001-03-31" "2001-03-31" "2001-03-31"
[11] "2001-03-31" "2001-03-31" "2001-03-31" "2001-03-31" "2001-03-31" "2001-03-31" "2001-03-31" "2001-03-31" "2001-03-31" "2001-03-31"
[21] "2001-03-31" "2001-03-31" "2001-03-31" "2001-03-31" "2001-03-31" "2001-03-31" "2001-03-31"
[1] 1 2
a b 
1 2 
# A tibble: 27 × 4
   REPORT_DATE SCHEDULE_CODE PART_NUM PART_OF
   <chr>       <chr>            <dbl>   <dbl>
 1 2001-03-31  ENT                  1       1
 2 2001-03-31  LEO                  1       1
 3 2001-03-31  NARR                 1       1
 4 2001-03-31  RC                   1       1
 5 2001-03-31  RCA                  1       1
 6 2001-03-31  RCB                  1       1
 7 2001-03-31  RCD                  1       1
 8 2001-03-31  RCE                  1       1
 9 2001-03-31  RCEI                 1       1
10 2001-03-31  RCEII                1       1
# … with 17 more rows
# A tibble: 27 × 4
   REPORT_DATE SCHEDULE_CODE PART_NUM PART_OF
   <chr>       <chr>            <dbl>   <dbl>
 1 2001-03-31  ENT                  1       1
 2 2001-03-31  LEO                  1       1
 3 2001-03-31  NARR                 1       1
 4 2001-03-31  RC                   1       1
 5 2001-03-31  RCA                  1       1
 6 2001-03-31  RCB                  1       1
 7 2001-03-31  RCD                  1       1
 8 2001-03-31  RCE                  1       1
 9 2001-03-31  RCEI                 1       1
10 2001-03-31  RCEII                1       1
# … with 17 more rows
…
14  2001-03-31           RCK        1       1
15  2001-03-31           RCL        1       1
16  2001-03-31           RCM        1       1
17  2001-03-31           RCN        1       1
18  2001-03-31           RCO        1       1
19  2001-03-31           RCR        1       2
20  2001-03-31           RCR        2       2
21  2001-03-31           RCS        1       1
22  2001-03-31            RI        1       1
23  2001-03-31           RIA        1       1
24  2001-03-31          RIBI        1       1
25  2001-03-31         RIBII        1       1
26  2001-03-31           RID        1       1
27  2001-03-31           RIE        1       1
# A tibble: 27 × 4
   REPORT_DATE SCHEDULE_CODE PART_NUM PART_OF
   <chr>       <chr>            <dbl>   <dbl>
 1 2001-03-31  ENT                  1       1
 2 2001-03-31  LEO                  1       1
 3 2001-03-31  NARR                 1       1
 4 2001-03-31  RC                   1       1
 5 2001-03-31  RCA                  1       1
 6 2001-03-31  RCB                  1       1
 7 2001-03-31  RCD                  1       1
 8 2001-03-31  RCE                  1       1
 9 2001-03-31  RCEI                 1       1
10 2001-03-31  RCEII                1       1
# … with 17 more rows
# A tibble: 27 × 4
   REPORT_DATE SCHEDULE_CODE PART_NUM PART_OF
   <chr>       <chr>         <chr>    <chr>  
 1 2001-03-31  ENT           1        1      
 2 2001-03-31  LEO           1        1      
 3 2001-03-31  NARR          1        1      
 4 2001-03-31  RC            1        1      
 5 2001-03-31  RCA           1        1      
 6 2001-03-31  RCB           1        1      
 7 2001-03-31  RCD           1        1      
 8 2001-03-31  RCE           1        1      
 9 2001-03-31  RCEI          1        1      
10 2001-03-31  RCEII         1        1      
# … with 17 more rows
# A tibble: 27 × 4
   REPORT_DATE SCHEDULE_CODE PART_NUM PART_OF
   <chr>       <chr>            <dbl>   <dbl>
 1 2001-03-31  ENT                  1       1
 2 2001-03-31  LEO                  1       1
 3 2001-03-31  NARR                 1       1
 4 2001-03-31  RC                   1       1
 5 2001-03-31  RCA                  1       1
 6 2001-03-31  RCB                  1       1
 7 2001-03-31  RCD                  1       1
 8 2001-03-31  RCE                  1       1
 9 2001-03-31  RCEI                 1       1
10 2001-03-31  RCEII                1       1
# … with 17 more rows
# A tibble: 27 × 4
   REPORT_DATE SCHEDULE_CODE PART_NUM PART_OF
   <chr>       <chr>            <dbl>   <dbl>
 1 2001-03-31  ENT                  1       1
 2 2001-03-31  LEO                  1       1
 3 2001-03-31  NARR                 1       1
 4 2001-03-31  RC                   1       1
 5 2001-03-31  RCA                  1       1
 6 2001-03-31  RCB                  1       1
 7 2001-03-31  RCD                  1       1
 8 2001-03-31  RCE                  1       1
 9 2001-03-31  RCEI                 1       1
10 2001-03-31  RCEII                1       1
# … with 17 more rows
# A tibble: 27 × 4
   REPORT_DATE SCHEDULE_CODE PART_NUM PART_OF
   <chr>       <chr>            <dbl>   <dbl>
 1 2001-03-31  ENT                  1       1
 2 2001-03-31  LEO                  1       1
 3 2001-03-31  NARR                 1       1
 4 2001-03-31  RC                   1       1
 5 2001-03-31  RCA                  1       1
 6 2001-03-31  RCB                  1       1
 7 2001-03-31  RCD                  1       1
 8 2001-03-31  RCE                  1       1
 9 2001-03-31  RCEI                 1       1
10 2001-03-31  RCEII                1       1
# … with 17 more rows
# A tibble: 27 × 4
   REPORT_DATE SCHEDULE_CODE PART_NUM PART_OF
   <chr>       <chr>            <dbl>   <dbl>
 1 2001-03-31  ENT                  1       1
 2 2001-03-31  LEO                  1       1
 3 2001-03-31  NARR                 1       1
 4 2001-03-31  RC                   1       1
 5 2001-03-31  RCA                  1       1
 6 2001-03-31  RCB                  1       1
 7 2001-03-31  RCD                  1       1
 8 2001-03-31  RCE                  1       1
 9 2001-03-31  RCEI                 1       1
10 2001-03-31  RCEII                1       1
# … with 17 more rows
# A tibble: 27 × 4
   REPORT_DATE SCHEDULE_CODE PART_NUM PART_OF
   <chr>       <chr>            <dbl>   <dbl>
 1 2001-03-31  ENT                  1       1
 2 2001-03-31  LEO                  1       1
 3 2001-03-31  NARR                 1       1
 4 2001-03-31  RC                   1       1
 5 2001-03-31  RCA                  1       1
 6 2001-03-31  RCB                  1       1
 7 2001-03-31  RCD                  1       1
 8 2001-03-31  RCE                  1       1
 9 2001-03-31  RCEI                 1       1
10 2001-03-31  RCEII                1       1
# … with 17 more rows
# A tibble: 27 × 4
   REPORT_DATE SCHEDULE_CODE PART_NUM PART_OF
   <chr>       <chr>            <dbl>   <dbl>
 1 2001-03-31  ENT                  1       1
 2 2001-03-31  LEO                  1       1
 3 2001-03-31  NARR                 1       1
 4 2001-03-31  RC                   1       1
 5 2001-03-31  RCA                  1       1
 6 2001-03-31  RCB                  1       1
 7 2001-03-31  RCD                  1       1
 8 2001-03-31  RCE                  1       1
 9 2001-03-31  RCEI                 1       1
10 2001-03-31  RCEII                1       1
# … with 17 more rows
$PART_NUM
 [1] 1 1 1 1 1 1 1 1 1 1 1 1 1 1 1 1 1 1 1 2 1 1 1 1 1 1 1

$PART_OF
 [1] 1 1 1 1 1 1 1 1 1 1 1 1 1 1 1 1 1 1 2 2 1 1 1 1 1 1 1

# A tibble: 27 × 4
   REPORT_DATE SCHEDULE_CODE PART_NUM PART_OF
   <chr>       <chr>            <dbl>   <dbl>
 1 2001-03-31  ENT                  1       1
 2 2001-03-31  LEO                  1       1
 3 2001-03-31  NARR                 1       1
 4 2001-03-31  RC                   1       1
 5 2001-03-31  RCA                  1       1
 6 2001-03-31  RCB                  1       1
 7 2001-03-31  RCD                  1       1
 8 2001-03-31  RCE                  1       1
 9 2001-03-31  RCEI                 1       1
10 2001-03-31  RCEII                1       1
# … with 17 more rows
# A tibble: 27 × 4
   REPORT_DATE SCHEDULE_CODE PART_NUM PART_OF
   <chr>       <chr>            <dbl>   <dbl>
 1 2001-03-31  ENT                  1       1
 2 2001-03-31  LEO                  1       1
 3 2001-03-31  NARR                 1       1
 4 2001-03-31  RC                   1       1
 5 2001-03-31  RCA                  1       1
 6 2001-03-31  RCB                  1       1
 7 2001-03-31  RCD                  1       1
 8 2001-03-31  RCE                  1       1
 9 2001-03-31  RCEI                 1       1
10 2001-03-31  RCEII                1       1
# … with 17 more rows
$REPORT_DATE
 [1] "2001-03-31" "2001-03-31" "2001-03-31" "2001-03-31" "2001-03-31" "2001-03-31" "2001-03-31" "2001-03-31" "2001-03-31" "2001-03-31"
[11] "2001-03-31" "2001-03-31" "2001-03-31" "2001-03-31" "2001-03-31" "2001-03-31" "2001-03-31" "2001-03-31" "2001-03-31" "2001-03-31"
[21] "2001-03-31" "2001-03-31" "2001-03-31" "2001-03-31" "2001-03-31" "2001-03-31" "2001-03-31"

$SCHEDULE_CODE
 [1] "ENT"   "LEO"   "NARR"  "RC"    "RCA"   "RCB"   "RCD"   "RCE"   "RCEI"  "RCEII" "RCF"   "RCG"   "RCH"   "RCK"   "RCL"   "RCM"   "RCN"  
[18] "RCO"   "RCR"   "RCR"   "RCS"   "RI"    "RIA"   "RIBI"  "RIBII" "RID"   "RIE"  

# A tibble: 27 × 4
   REPORT_DATE SCHEDULE_CODE PART_NUM PART_OF
   <chr>       <chr>            <dbl>   <dbl>
 1 2001-03-31  ENT                  1       1
 2 2001-03-31  LEO                  1       1
 3 2001-03-31  NARR                 1       1
 4 2001-03-31  RC                   1       1
 5 2001-03-31  RCA                  1       1
 6 2001-03-31  RCB                  1       1
 7 2001-03-31  RCD                  1       1
 8 2001-03-31  RCE                  1       1
 9 2001-03-31  RCEI                 1       1
10 2001-03-31  RCEII                1       1
# … with 17 more rows
# A tibble: 27 × 4
   REPORT_DATE SCHEDULE_CODE PART_NUM PART_OF
   <chr>       <chr>            <dbl>   <dbl>
 1 2001-03-31  ENT                  1       1
 2 2001-03-31  LEO                  1       1
 3 2001-03-31  NARR                 1       1
 4 2001-03-31  RC                   1       1
 5 2001-03-31  RCA                  1       1
 6 2001-03-31  RCB                  1       1
 7 2001-03-31  RCD                  1       1
 8 2001-03-31  RCE                  1       1
 9 2001-03-31  RCEI                 1       1
10 2001-03-31  RCEII                1       1
# … with 17 more rows
# A tibble: 27 × 4
   REPORT_DATE SCHEDULE_CODE PART_NUM PART_OF
   <chr>       <chr>            <dbl>   <dbl>
 1 2001-03-31  ENT                  1       1
 2 2001-03-31  LEO                  1       1
 3 2001-03-31  NARR                 1       1
 4 2001-03-31  RC                   1       1
 5 2001-03-31  RCA                  1       1
 6 2001-03-31  RCB                  1       1
 7 2001-03-31  RCD                  1       1
 8 2001-03-31  RCE                  1       1
 9 2001-03-31  RCEI                 1       1
10 2001-03-31  RCEII                1       1
# … with 17 more rows
# A tibble: 27 × 4
   REPORT_DATE SCHEDULE_CODE PART_NUM PART_OF
   <chr>       <chr>            <dbl>   <dbl>
 1 2001-03-31  ENT                  1       1
 2 2001-03-31  LEO                  1       1
 3 2001-03-31  NARR                 1       1
 4 2001-03-31  RC                   1       1
 5 2001-03-31  RCA                  1       1
 6 2001-03-31  RCB                  1       1
 7 2001-03-31  RCD                  1       1
 8 2001-03-31  RCE                  1       1
 9 2001-03-31  RCEI                 1       1
10 2001-03-31  RCEII                1       1
# … with 17 more rows
…
$SCHEDULE_CODE
 [1] "ENT"   "LEO"   "NARR"  "RC"    "RCA"   "RCB"   "RCD"   "RCE"   "RCEI"  "RCEII" "RCF"   "RCG"   "RCH"   "RCK"   "RCL"   "RCM"   "RCN"  
[18] "RCO"   "RCR"   "RCR"   "RCS"   "RI"    "RIA"   "RIBI"  "RIBII" "RID"   "RIE"  

# A tibble: 27 × 4
   REPORT_DATE SCHEDULE_CODE PART_NUM PART_OF
   <chr>       <chr>            <dbl>   <dbl>
 1 2001-03-31  ENT                  1       1
 2 2001-03-31  LEO                  1       1
 3 2001-03-31  NARR                 1       1
 4 2001-03-31  RC                   1       1
 5 2001-03-31  RCA                  1       1
 6 2001-03-31  RCB                  1       1
 7 2001-03-31  RCD                  1       1
 8 2001-03-31  RCE                  1       1
 9 2001-03-31  RCEI                 1       1
10 2001-03-31  RCEII                1       1
# … with 17 more rows
…
